0.010373834
0.155779056
0.060544589
0.090196151
0.018322745
0.004912176
0.088755549
-0.054238127
-0.05012295
-0.128221637
-0.269351102
0.147912116
0.048237043
0.106738319
0.053374427
0.023308498
0.028313287
-0.041876206
0.054470987
-0.11533774
-0.037846034
-0.094203128
-0.026079343
0.019375607
-0.037822446
0.164417219
-0.004998127
0.043449737
0.010456795
-0.057029663
0.033994076
-0.051522943
-0.034137223
-0.059619047
-0.025845068
0.053983329
-0.053532778
0.067883011
0.027566298
0.028640072
0.004241394
-0.021060566
0.019972896
-0.062692082
-0.05511669
-0.062712366
0.013880169
0.09455915
-0.044128932
-0.014794885
0.036354876
0.055853293
0.009172165
-0.032446935
0.007916109
-0.080678669
0.013357169
-0.051777978
-0.038958069
0.135865785
-0.033244055
0.037303659
0.024586469
0.044915958
-0.04138381
-0.021073423
0.008384357
-0.071713952
-0.002466937
-0.054271237
-0.048459731
0.09324299
-0.04492585
0.065903375
0.007466107
0.065902626
-0.016460377
0.011545393
-0.004650493
-0.039748862
-0.042947944
-0.051806621
-0.006137485
0.047711036
-0.046450211
0.074827411
0.060035481
0.002523957
-0.018426127
-0.014530643
0.019394606
-0.087312163
-0.001020283
-0.043739624
-0.025063759
0.053614531
-0.002211234
0.082065286
0.035044548
-0.003159169
0.0272725
-0.025500895
-0.042748964
-0.015090577
-0.027966626
-0.046548704
-0.05563395
0.101490841
-0.047253891
0.025654062
0.008631575
0.071121279
-0.017256898
-0.00623586
0.015533563
-0.05546201
-0.037304293
-0.061470623
-0.009580608
0.068377414
-0.04523412
0.057840666
0.044968817
-0.005799166
0.042081907
-0.034041608
-0.001758281
-0.043185247
-0.032459964
-0.050351847
-0.009506055
0.07765503
-0.041903958
0.054954691
0.028342764
0.038086098
0.004660114
-0.043043938
0.038974818
-0.031234794
-0.035701334
-0.058696269
0.002125267
0.078063056
-0.023337085
0.060858756
0.035602041
0.038674302
-0.063012358
-0.019899698
0.041194628
-0.041865323
-0.015907153
-0.081168405
0.06869788
0.078922065
-0.015969033
0.052950319
0.028317191
0.031857034
-0.030899515
-0.060960269
-0.035421869
-0.021420368
-0.002922301
-0.070745039
0.05270102
0.034875944
0.023550162
0.02745414
0.00080237
0.008330706
0.030435462
-0.085272053
0.059699992
-0.046772203
-0.011921907
-0.041645598
0.056927076
0.076073782
-0.045326962
0.065347524
0.064247453
0.069223518
-0.053734959
-0.029621529
0.020307332
-0.059779514
0.003757562
-0.036141586
-0.057164899
0.087638248
-0.043731204
0.017563291
0.044928018
0.028067766
-0.019306347
-0.006809111
0.065186191
-0.06026767
-0.026226606
-0.043496984
-0.03292353
0.072303878
0.022912294
0.06807165
0.023721101
0.080896234
-0.09608021
-0.012280588
0.030261118
-0.053772523
0.008970005
-0.069634186
-0.045671705
0.051510951
0.019893181
0.066024534
0.02608261
0.010792132
-0.015718996
-0.017927915
0.028503151
-0.041108087
-0.016187118
-0.07456201
0.00706997
0.099868265
-0.034420861
0.065670082
0.037231661
0.042876288
-0.009518864
-0.007074943
0.10697297
-0.049559247
-0.043987281
-0.08006059
-0.006843717
0.046133638
-0.0518808
0.086497665
0.018396823
0.021453956
-0.009825272
-0.03054025
0.020466301
-0.043073376
-0.010886963
-0.042542501
-0.060391246
0.044344256
0.014222214
0.068022949
0.020280614
0.022473269
-0.003140352
-0.033367604
0.025643634
-0.041719732
-0.038646524
-0.069457576
-0.051790177
0.066990853
-0.000228241
0.085516686
0.017668178
0.050938081
-0.02766959
-0.002543133
0.11694855
-0.111367061
-0.013623755
-0.016643797
-0.049593108
0.11065162
-0.034056825
0.081456636
0.036776419
0.020530466
-0.03299814
-0.033107758
0.030711231
-0.068148023
-0.011686062
-0.093617421
-0.063927562
0.082018591
-0.019823097
0.10045945
-0.014364783
0.031418558
-0.018453262
-0.005387829
0.006935479
-0.024885718
-0.038568995
-0.093028269
-0.012765341
0.09928566
-0.041920375
0.073264755
0.003808895
0.049941514
-0.014212748
-0.018788864
0.009092703
-0.041204368
-0.031032474
-0.067151139
-0.031547265
0.071703261
0.009249624
0.04783052
-0.001456519
0.022061533
-0.023082893
-0.016361471
0.022234223
-0.044100327
-0.014678429
-0.045766254
-0.039689898
0.089559209
-0.055928955
0.077368242
0.005607924
0.048577445
-0.029096317
-0.018662671
0.030077074
-0.05590884
-0.048448168
-0.067646402
-0.012048736
0.093713278
-0.042613562
0.071759198
0.024946119
0.033436193
-0.035452883
-0.005668913
0.030394383
-0.032945567
-0.056699564
-0.043457015
-0.033985679
0.088900198
-0.01977206
0.076635648
0.003046829
0.046052883
-0.029434075
-0.010583593
0.033293995
-0.049327378
-0.027442137
-0.049578023
-0.049670786
0.079461493
-0.012750879
0.06753694
0.00375408
0.037255065
-0.03692729
-0.014765899
0.03874354
-0.029316624
-0.036671726
-0.093108102